MODULE_VERSION_STACK=3.2.10
REMOTEHOST=10.18.38.153
MANPATH=/opt/und/local/man:/opt/und/maple/16/man:/opt/und/intel//compiler2016/man:/opt/und/pgi/8.0/linux86-64/8.0/man:/opt/und/modules/3.2.10/Modules/3.2.10/share/man:/usr/share/man:/usr/share/catman:/usr/catman:/usr/man
HOSTNAME=student00
INTEL_LICENSE_FILE=/opt/und/intel//licenses
HOST=student00
TERM=xterm-256color
SHELL=/bin/bash
SSH_CLIENT=10.18.38.153 50245 22
QTDIR=/usr/lib64/qt-3.3
QTINC=/usr/lib64/qt-3.3/include
SSH_TTY=/dev/pts/78
GROUP=dip
USER=sjohns37
LD_LIBRARY_PATH=/afs/nd.edu/user14/csesoft/new/lib:/afs/nd.edu/user14/csesoft/new/lib64:/opt/und/local/lib:/opt/und/intel//compiler2016/lib:/opt/und/pgi/8.0/linux86-64/8.0/lib:/afs/nd.edu/i386_linux24/opt/und/matlab/9.1/sys/opengl/lib/glnxa64
LS_COLORS=rs=0:di=38;5;27:ln=38;5;51:mh=44;38;5;15:pi=40;38;5;11:so=38;5;13:do=38;5;5:bd=48;5;232;38;5;11:cd=48;5;232;38;5;3:or=48;5;232;38;5;9:mi=05;48;5;232;38;5;15:su=48;5;196;38;5;15:sg=48;5;11;38;5;16:ca=48;5;196;38;5;226:tw=48;5;10;38;5;16:ow=48;5;10;38;5;21:st=48;5;21;38;5;15:ex=38;5;34:*.tar=38;5;9:*.tgz=38;5;9:*.arj=38;5;9:*.taz=38;5;9:*.lzh=38;5;9:*.lzma=38;5;9:*.tlz=38;5;9:*.txz=38;5;9:*.zip=38;5;9:*.z=38;5;9:*.Z=38;5;9:*.dz=38;5;9:*.gz=38;5;9:*.lz=38;5;9:*.xz=38;5;9:*.bz2=38;5;9:*.tbz=38;5;9:*.tbz2=38;5;9:*.bz=38;5;9:*.tz=38;5;9:*.deb=38;5;9:*.rpm=38;5;9:*.jar=38;5;9:*.rar=38;5;9:*.ace=38;5;9:*.zoo=38;5;9:*.cpio=38;5;9:*.7z=38;5;9:*.rz=38;5;9:*.jpg=38;5;13:*.jpeg=38;5;13:*.gif=38;5;13:*.bmp=38;5;13:*.pbm=38;5;13:*.pgm=38;5;13:*.ppm=38;5;13:*.tga=38;5;13:*.xbm=38;5;13:*.xpm=38;5;13:*.tif=38;5;13:*.tiff=38;5;13:*.png=38;5;13:*.svg=38;5;13:*.svgz=38;5;13:*.mng=38;5;13:*.pcx=38;5;13:*.mov=38;5;13:*.mpg=38;5;13:*.mpeg=38;5;13:*.m2v=38;5;13:*.mkv=38;5;13:*.ogm=38;5;13:*.mp4=38;5;13:*.m4v=38;5;13:*.mp4v=38;5;13:*.vob=38;5;13:*.qt=38;5;13:*.nuv=38;5;13:*.wmv=38;5;13:*.asf=38;5;13:*.rm=38;5;13:*.rmvb=38;5;13:*.flc=38;5;13:*.avi=38;5;13:*.fli=38;5;13:*.flv=38;5;13:*.gl=38;5;13:*.dl=38;5;13:*.xcf=38;5;13:*.xwd=38;5;13:*.yuv=38;5;13:*.cgm=38;5;13:*.emf=38;5;13:*.axv=38;5;13:*.anx=38;5;13:*.ogv=38;5;13:*.ogx=38;5;13:*.aac=38;5;45:*.au=38;5;45:*.flac=38;5;45:*.mid=38;5;45:*.midi=38;5;45:*.mka=38;5;45:*.mp3=38;5;45:*.mpc=38;5;45:*.ogg=38;5;45:*.ra=38;5;45:*.wav=38;5;45:*.axa=38;5;45:*.oga=38;5;45:*.spx=38;5;45:*.xspf=38;5;45:
HOSTTYPE=x86_64-linux
PGI=/opt/und/pgi/8.0/linux86-64/8.0
MODULE_VERSION=3.2.10
MAIL=/var/spool/mail/sjohns37
PATH=/afs/nd.edu/user15/pbui/pub/anaconda3/bin:/afs/nd.edu/user15/pbui/pub/anaconda3/bin:/afs/nd.edu/user14/csesoft/new/bin:/opt/und/local/bin:/opt/und/mathematica/11.0/Executables:/opt/und/maple/16/bin:/opt/und/intel//compiler2016/bin:/opt/und/pgi/8.0/linux86-64/8.0/bin:/afs/nd.edu/i386_linux24/opt/und/matlab/9.1/bin:/opt/und/modules/3.2.10/Modules/3.2.10/bin:/usr/lib64/qt-3.3/bin:/usr/kerberos/sbin:/usr/kerberos/bin:/usr/local/bin:/bin:/usr/bin:/opt/und/local/bin:.
PWD=/afs/nd.edu/user28/sjohns37/systems_prog/reading01
_LMFILES_=/opt/und/modules/3.2.10/Modules/3.2.10/modulefiles/modules:/opt/und/modulefiles/matlab/9.1:/opt/und/modulefiles/pgi/8.0:/opt/und/modulefiles/intel/2016:/opt/und/modulefiles/maple/16:/opt/und/modulefiles/mathematica/11.0:/opt/und/modulefiles/opt_local/1.0:/opt/und/modulefiles/initialize/standard
EDITOR=/bin/vi
LANG=en_US.UTF-8
KDE_IS_PRELINKED=1
MODULEPATH=/opt/und/modules/versions:/opt/und/modules/3.2.10/Modules/$MODULE_VERSION/modulefiles:/opt/und/modulefiles
LOADEDMODULES=modules:matlab/9.1:pgi/8.0:intel/2016:maple/16:mathematica/11.0:opt_local/1.0:initialize/standard
KDEDIRS=/usr
SSH_ASKPASS=/usr/libexec/openssh/gnome-ssh-askpass
KRB5CCNAME=FILE:/tmp/krb5cc_223779_9O1YNI
SHLVL=2
HOME=/afs/nd.edu/user28/sjohns37
OSTYPE=linux
VENDOR=unknown
MACHTYPE=x86_64
LOGNAME=sjohns37
VISUAL=/bin/vi
QTLIB=/usr/lib64/qt-3.3/lib
CVS_RSH=ssh
SSH_CONNECTION=10.18.38.153 50245 129.74.152.73 22
MODULESHOME=/opt/und/modules/3.2.10/Modules/3.2.10
LESSOPEN=||/usr/bin/lesspipe.sh %s
G_BROKEN_FILENAMES=1
_=/bin/env
OLDPWD=/afs/nd.edu/user28/sjohns37
